Library/Bee/artifacts/mvdfrm/Unity.Android.Gradle.dll_E2CBFC607D9F7E67.mvfrm
Library/Bee/artifacts/mvdfrm/Unity.Android.Types.dll_B9E42125EE2A7CC5.mvfrm
Library/Bee/artifacts/mvdfrm/UnityEditor.Android.Extensions.dll_C4C065D1C2CEB107.mvfrm
Library/Bee/artifacts/mvdfrm/UnityEditor.AppleTV.Extensions.dll_149F9605265EEE91.mvfrm
Library/Bee/artifacts/mvdfrm/UnityEditor.iOS.Extensions.Xcode.dll_925ED5083E1E5427.mvfrm
Library/Bee/artifacts/mvdfrm/UnityEditor.iOS.Extensions.Common.dll_98135F7D4FF23B64.mvfrm
Library/Bee/artifacts/mvdfrm/UnityEditor.iOS.Extensions.dll_6E6673DD8BB56901.mvfrm
Library/Bee/artifacts/mvdfrm/UnityEditor.iOS.Extensions.Xcode.dll_382F15915F331428.mvfrm
Library/Bee/artifacts/mvdfrm/UnityEditor.Graphs.dll_93FE58A6C74B05BB.mvfrm
Library/Bee/artifacts/mvdfrm/UnityEditor.CoreModule.dll_E3788E7ADBAC4489.mvfrm
Library/Bee/artifacts/mvdfrm/UnityEditor.DeviceSimulatorModule.dll_F74F812899E78E88.mvfrm
Library/Bee/artifacts/mvdfrm/UnityEditor.DiagnosticsModule.dll_DEB0B8081624DED6.mvfrm
Library/Bee/artifacts/mvdfrm/UnityEditor.dll_51C7E9EC4608DEBC.mvfrm
Library/Bee/artifacts/mvdfrm/UnityEditor.GraphViewModule.dll_598AE4E358FB83ED.mvfrm
Library/Bee/artifacts/mvdfrm/UnityEditor.PackageManagerUIModule.dll_B0767198CD0E30A5.mvfrm
Library/Bee/artifacts/mvdfrm/UnityEditor.QuickSearchModule.dll_69C039156EFBDB2F.mvfrm
Library/Bee/artifacts/mvdfrm/UnityEditor.SceneTemplateModule.dll_FDB9DCB9F1D3E590.mvfrm
Library/Bee/artifacts/mvdfrm/UnityEditor.TextCoreFontEngineModule.dll_CAE12957526D87E7.mvfrm
Library/Bee/artifacts/mvdfrm/UnityEditor.TextCoreTextEngineModule.dll_12C95FC8E1F14105.mvfrm
Library/Bee/artifacts/mvdfrm/UnityEditor.UIBuilderModule.dll_AE1391FFCBB3FD21.mvfrm
Library/Bee/artifacts/mvdfrm/UnityEditor.UIElementsModule.dll_8B9C73994CFF9125.mvfrm
Library/Bee/artifacts/mvdfrm/UnityEditor.UIElementsSamplesModule.dll_2BA6C8814D3A4998.mvfrm
Library/Bee/artifacts/mvdfrm/UnityEditor.UIServiceModule.dll_E705A362B4EB4D3B.mvfrm
Library/Bee/artifacts/mvdfrm/UnityEditor.UnityConnectModule.dll_0709DD63A6B237BF.mvfrm
Library/Bee/artifacts/mvdfrm/UnityEngine.AccessibilityModule.dll_305F4850F24A0D2D.mvfrm
Library/Bee/artifacts/mvdfrm/UnityEngine.AIModule.dll_DE93636BE2075BBD.mvfrm
Library/Bee/artifacts/mvdfrm/UnityEngine.AndroidJNIModule.dll_09E55C6C961EFFFB.mvfrm
Library/Bee/artifacts/mvdfrm/UnityEngine.AnimationModule.dll_2810610C33585893.mvfrm
Library/Bee/artifacts/mvdfrm/UnityEngine.ARModule.dll_9806286F3F24BA86.mvfrm
Library/Bee/artifacts/mvdfrm/UnityEngine.AssetBundleModule.dll_ADA96C06D1629021.mvfrm
Library/Bee/artifacts/mvdfrm/UnityEngine.AudioModule.dll_5A84CBD20CF8DCC5.mvfrm
Library/Bee/artifacts/mvdfrm/UnityEngine.ClothModule.dll_C16D28CCE715BBA9.mvfrm
Library/Bee/artifacts/mvdfrm/UnityEngine.CoreModule.dll_069961CD83B1AFB4.mvfrm
Library/Bee/artifacts/mvdfrm/UnityEngine.CrashReportingModule.dll_CCDE8033D9551BCC.mvfrm
Library/Bee/artifacts/mvdfrm/UnityEngine.DirectorModule.dll_9008320C73304AD1.mvfrm
Library/Bee/artifacts/mvdfrm/UnityEngine.dll_846C30C4A47C6BA1.mvfrm
Library/Bee/artifacts/mvdfrm/UnityEngine.DSPGraphModule.dll_95599375E5911BF2.mvfrm
Library/Bee/artifacts/mvdfrm/UnityEngine.GameCenterModule.dll_3432A6875C5FF0EC.mvfrm
Library/Bee/artifacts/mvdfrm/UnityEngine.GIModule.dll_76CFAC797DB643D7.mvfrm
Library/Bee/artifacts/mvdfrm/UnityEngine.GridModule.dll_E40A7DBB9C0645AB.mvfrm
Library/Bee/artifacts/mvdfrm/UnityEngine.HotReloadModule.dll_A9591F120E8B7415.mvfrm
Library/Bee/artifacts/mvdfrm/UnityEngine.ImageConversionModule.dll_68EE414A8BC75400.mvfrm
Library/Bee/artifacts/mvdfrm/UnityEngine.IMGUIModule.dll_92E46B38D32A70A6.mvfrm
Library/Bee/artifacts/mvdfrm/UnityEngine.InputLegacyModule.dll_3EEE872569544612.mvfrm
Library/Bee/artifacts/mvdfrm/UnityEngine.InputModule.dll_C0FA938283310169.mvfrm
Library/Bee/artifacts/mvdfrm/UnityEngine.JSONSerializeModule.dll_9076D18CF1856DB7.mvfrm
Library/Bee/artifacts/mvdfrm/UnityEngine.LocalizationModule.dll_C4F31CCBEFB5FD7E.mvfrm
Library/Bee/artifacts/mvdfrm/UnityEngine.ParticleSystemModule.dll_1FF0C9804766A75A.mvfrm
Library/Bee/artifacts/mvdfrm/UnityEngine.PerformanceReportingModule.dll_97CAE26CCDFDF873.mvfrm
Library/Bee/artifacts/mvdfrm/UnityEngine.Physics2DModule.dll_74B650FCD4555028.mvfrm
Library/Bee/artifacts/mvdfrm/UnityEngine.PhysicsModule.dll_DD9A87657EAF0236.mvfrm
Library/Bee/artifacts/mvdfrm/UnityEngine.ProfilerModule.dll_C24E6B430C89D1DE.mvfrm
Library/Bee/artifacts/mvdfrm/UnityEngine.RuntimeInitializeOnLoadManagerInitializerModule.dll_B83C1C07C2E710F1.mvfrm
Library/Bee/artifacts/mvdfrm/UnityEngine.ScreenCaptureModule.dll_AA5E7F1205F19A19.mvfrm
Library/Bee/artifacts/mvdfrm/UnityEngine.SharedInternalsModule.dll_ECFF802002F54F50.mvfrm
Library/Bee/artifacts/mvdfrm/UnityEngine.SpriteMaskModule.dll_1D5F19177DCF8666.mvfrm
Library/Bee/artifacts/mvdfrm/UnityEngine.SpriteShapeModule.dll_C70A99618704C82B.mvfrm
Library/Bee/artifacts/mvdfrm/UnityEngine.StreamingModule.dll_DCA54E5C82E00FD1.mvfrm
Library/Bee/artifacts/mvdfrm/UnityEngine.SubstanceModule.dll_B95062A5CE330DDF.mvfrm
Library/Bee/artifacts/mvdfrm/UnityEngine.SubsystemsModule.dll_880C7F794C176E79.mvfrm
Library/Bee/artifacts/mvdfrm/UnityEngine.TerrainModule.dll_F7E102D4546D4B24.mvfrm
Library/Bee/artifacts/mvdfrm/UnityEngine.TerrainPhysicsModule.dll_206B725360A9A1E7.mvfrm
Library/Bee/artifacts/mvdfrm/UnityEngine.TextCoreFontEngineModule.dll_4940A4AA656B46B2.mvfrm
Library/Bee/artifacts/mvdfrm/UnityEngine.TextCoreTextEngineModule.dll_9128DB1BF4EEFFD0.mvfrm
Library/Bee/artifacts/mvdfrm/UnityEngine.TextRenderingModule.dll_D39DF11CBD291A0E.mvfrm
Library/Bee/artifacts/mvdfrm/UnityEngine.TilemapModule.dll_96DD6A556C2A2C2D.mvfrm
Library/Bee/artifacts/mvdfrm/UnityEngine.TLSModule.dll_EA14486620A4D58A.mvfrm
Library/Bee/artifacts/mvdfrm/UnityEngine.UIElementsModule.dll_8C4AE0E14F43AA70.mvfrm
Library/Bee/artifacts/mvdfrm/UnityEngine.UIElementsNativeModule.dll_FAF0262E3E86A0C7.mvfrm
Library/Bee/artifacts/mvdfrm/UnityEngine.UIModule.dll_DA0701993E4E6169.mvfrm
Library/Bee/artifacts/mvdfrm/UnityEngine.UmbraModule.dll_D55977EA9A1F8838.mvfrm
Library/Bee/artifacts/mvdfrm/UnityEngine.UNETModule.dll_993FA9B6D0C0A52D.mvfrm
Library/Bee/artifacts/mvdfrm/UnityEngine.UnityAnalyticsModule.dll_3F903A49F38DF956.mvfrm
Library/Bee/artifacts/mvdfrm/UnityEngine.UnityConnectModule.dll_F4696172A13A386A.mvfrm
Library/Bee/artifacts/mvdfrm/UnityEngine.UnityCurlModule.dll_5B2D023DA36C4A80.mvfrm
Library/Bee/artifacts/mvdfrm/UnityEngine.UnityTestProtocolModule.dll_E7697E73A7359EEE.mvfrm
Library/Bee/artifacts/mvdfrm/UnityEngine.UnityWebRequestAssetBundleModule.dll_400E4C8E060E2CA7.mvfrm
Library/Bee/artifacts/mvdfrm/UnityEngine.UnityWebRequestAudioModule.dll_0FC7364B5468C30B.mvfrm
Library/Bee/artifacts/mvdfrm/UnityEngine.UnityWebRequestModule.dll_7A8D48F496BBEE7F.mvfrm
Library/Bee/artifacts/mvdfrm/UnityEngine.UnityWebRequestTextureModule.dll_12E889DAAF89F840.mvfrm
Library/Bee/artifacts/mvdfrm/UnityEngine.UnityWebRequestWWWModule.dll_5BEB2077E4AEBC3C.mvfrm
Library/Bee/artifacts/mvdfrm/UnityEngine.VehiclesModule.dll_07CB2B8BED5A1A6C.mvfrm
Library/Bee/artifacts/mvdfrm/UnityEngine.VFXModule.dll_6AF2E0D4F7123EF7.mvfrm
Library/Bee/artifacts/mvdfrm/UnityEngine.VideoModule.dll_7F8E503CCF8AF86A.mvfrm
Library/Bee/artifacts/mvdfrm/UnityEngine.VRModule.dll_2CD9281EE008E6E1.mvfrm
Library/Bee/artifacts/mvdfrm/UnityEngine.WindModule.dll_7CE83CF614E82E1D.mvfrm
Library/Bee/artifacts/mvdfrm/UnityEngine.XRModule.dll_5F97EB236943343F.mvfrm
Library/Bee/artifacts/mvdfrm/UnityEditor.OSXStandalone.Extensions.dll_1FCBD1D2B8A478D2.mvfrm
Library/Bee/artifacts/mvdfrm/Unity.Burst.Cecil.dll_96A372D315648A07.mvfrm
Library/Bee/artifacts/mvdfrm/Unity.Burst.Cecil.Mdb.dll_4CFCC03182BC9704.mvfrm
Library/Bee/artifacts/mvdfrm/Unity.Burst.Cecil.Pdb.dll_644F38A101719887.mvfrm
Library/Bee/artifacts/mvdfrm/Unity.Burst.Cecil.Rocks.dll_2EE31070D8CA7F87.mvfrm
Library/Bee/artifacts/mvdfrm/Unity.Burst.Unsafe.dll_0F0F2F2B2B4CD55C.mvfrm
Library/Bee/artifacts/mvdfrm/Unity.Plastic.Antlr3.Runtime.dll_32910F19DAA64086.mvfrm
Library/Bee/artifacts/mvdfrm/Unity.Plastic.Newtonsoft.Json.dll_40F5CDE5A15C394F.mvfrm