%YAML 1.1
%TAG !u! tag:unity3d.com,2011:
--- !u!687078895 &4343727234628468602
SpriteAtlas:
  m_ObjectHideFlags: 0
  m_CorrespondingSourceObject: {fileID: 0}
  m_PrefabInstance: {fileID: 0}
  m_PrefabAsset: {fileID: 0}
  m_Name: kuchnia
  m_EditorData:
    serializedVersion: 2
    textureSettings:
      serializedVersion: 2
      anisoLevel: 1
      compressionQuality: 50
      maxTextureSize: 2048
      textureCompression: 0
      filterMode: 1
      generateMipMaps: 0
      readable: 0
      crunchedCompression: 0
      sRGB: 1
    platformSettings:
    - serializedVersion: 3
      m_BuildTarget: iPhone
      m_MaxTextureSize: 2048
      m_ResizeAlgorithm: 0
      m_TextureFormat: 51
      m_TextureCompression: 1
      m_CompressionQuality: 50
      m_CrunchedCompression: 0
      m_AllowsAlphaSplitting: 0
      m_Overridden: 1
      m_AndroidETC2FallbackOverride: 0
      m_ForceMaximumCompressionQuality_BC6H_BC7: 0
    - serializedVersion: 3
      m_BuildTarget: Android
      m_MaxTextureSize: 2048
      m_ResizeAlgorithm: 0
      m_TextureFormat: 51
      m_TextureCompression: 1
      m_CompressionQuality: 50
      m_CrunchedCompression: 0
      m_AllowsAlphaSplitting: 0
      m_Overridden: 1
      m_AndroidETC2FallbackOverride: 0
      m_ForceMaximumCompressionQuality_BC6H_BC7: 0
    packingSettings:
      serializedVersion: 2
      padding: 8
      blockOffset: 1
      allowAlphaSplitting: 0
      enableRotation: 1
      enableTightPacking: 0
      enableAlphaDilation: 0
    secondaryTextureSettings: {}
    variantMultiplier: 1
    packables:
    - {fileID: 102900000, guid: 1e5fe5788dc1b4505863bf7183d08ab4, type: 3}
    - {fileID: 102900000, guid: f67ca5c5e286546cd9ae6e2de914981a, type: 3}
    bindAsDefault: 1
    isAtlasV2: 0
    cachedData: {fileID: 0}
  m_MasterAtlas: {fileID: 0}
  m_PackedSprites:
  - {fileID: 21300000, guid: 0375493074d324086ba0341ec40b400f, type: 3}
  - {fileID: 21300000, guid: 2312a450b61d94055a71bfa956c339ac, type: 3}
  - {fileID: 21300000, guid: 3d8cca604a9f24e0d8d5c38450ca098c, type: 3}
  - {fileID: 21300000, guid: cf939570b86634d9faf8ba76a65004ff, type: 3}
  - {fileID: 21300000, guid: c7c6cbe010614494099d009edda446c1, type: 3}
  - {fileID: 21300000, guid: db316a71e284b4715a08b1134020c56c, type: 3}
  - {fileID: 21300000, guid: 6bed10b10a73146d29a4efc486777c5a, type: 3}
  - {fileID: 21300000, guid: 874076b117273487f900e0b05abbdbf6, type: 3}
  - {fileID: 21300000, guid: 5ad6cdf188905424c952257712914a96, type: 3}
  - {fileID: 21300000, guid: f6f5ea32a02b14686b828d30048b09bf, type: 3}
  - {fileID: 21300000, guid: 89b0c2e245fbe4fb0adc757555998549, type: 3}
  - {fileID: 21300000, guid: 1f2539e2b87404532acda6782f11334a, type: 3}
  - {fileID: 21300000, guid: 4a077163701e94ddf8e407db86f5eac7, type: 3}
  - {fileID: 21300000, guid: cd3f8db3e32ce49de9553d4090dd2abe, type: 3}
  - {fileID: 21300000, guid: f64555f4c00ec40e4ae9eb1603a38179, type: 3}
  - {fileID: 21300000, guid: a5aa61853f18e43a8a71b9a26f25a418, type: 3}
  - {fileID: 21300000, guid: 060109d5e89ae4aab8de62768dd18879, type: 3}
  - {fileID: 21300000, guid: df88fb364a00f4c55ac7bf750a42f40a, type: 3}
  - {fileID: 21300000, guid: 68deed369558f402abe6efd2718e1a36, type: 3}
  - {fileID: 21300000, guid: fa9de9a65ec5e412190082161ea71775, type: 3}
  - {fileID: 21300000, guid: 15a741d6c913a42209362d01e9884c78, type: 3}
  - {fileID: 21300000, guid: 59eeb2e60d5f94fadb394db0aa25f14b, type: 3}
  - {fileID: 21300000, guid: 6a42f0773550c4502a62f716ed66029b, type: 3}
  - {fileID: 21300000, guid: 91869c77f004542ef81261ca1bbe9e41, type: 3}
  - {fileID: 21300000, guid: 72c131f755e3d4bf4a71e30c4946fb18, type: 3}
  - {fileID: 21300000, guid: 19b785f7869be4365a99791f5156ae19, type: 3}
  - {fileID: 21300000, guid: 1461f248ca2aa473eb74cbd36e77b01f, type: 3}
  - {fileID: 21300000, guid: c7df96680fb464bd7ab280aadd7e991e, type: 3}
  - {fileID: 21300000, guid: 429544d88d2bc499b929b46603bd0afe, type: 3}
  - {fileID: 21300000, guid: 3635c7d80bb064d379ddd295a9943c42, type: 3}
  - {fileID: 21300000, guid: 0d02ee0984afb44058ce990cc3db8f85, type: 3}
  - {fileID: 21300000, guid: 04680d191191746849175a7f1c3cfd69, type: 3}
  - {fileID: 21300000, guid: 333121392a1e94812b280abb358c7d3d, type: 3}
  - {fileID: 21300000, guid: d5f62b79e1f3b4d8dad990cba2e57a60, type: 3}
  - {fileID: 21300000, guid: 6588311adad9144498b8e93483664ffb, type: 3}
  - {fileID: 21300000, guid: 040c951a7bb4246eb993944e5ce48c70, type: 3}
  - {fileID: 21300000, guid: 0b27602a321dd40118b0a0f67ebceff8, type: 3}
  - {fileID: 21300000, guid: fcb4da4a4ea9b443e9785fb1d85d94d2, type: 3}
  - {fileID: 21300000, guid: 9aac1a7a4053d48f1aa0ed3b26048860, type: 3}
  - {fileID: 21300000, guid: 2fc1779a62f4745c4b0d5afae9e8589a, type: 3}
  - {fileID: 21300000, guid: de9dfdaad176547418c436b98a50bb68, type: 3}
  - {fileID: 21300000, guid: 056be4ca653f34e70908f008be9f9074, type: 3}
  - {fileID: 21300000, guid: db54f5dab0bd44edf8965a908aa49b56, type: 3}
  - {fileID: 21300000, guid: 7531acfa1fef742ada92ca369b839fb6, type: 3}
  - {fileID: 21300000, guid: 25602f0b4259b499e96184233f175aae, type: 3}
  - {fileID: 21300000, guid: 40ffdd5b38bdc4561a94ef26f5a6d0e5, type: 3}
  - {fileID: 21300000, guid: fab9606b8d6514fa580df7b602a5f868, type: 3}
  - {fileID: 21300000, guid: c198137b476c343e2950ec5e3329127f, type: 3}
  - {fileID: 21300000, guid: d2575c8bbbbad4c0a81fcb7ad09c03b0, type: 3}
  - {fileID: 21300000, guid: 1bc457cb72448428db2a80f254e8b70e, type: 3}
  - {fileID: 21300000, guid: 06deeb2c88b3e4522885a5aacb4075fc, type: 3}
  - {fileID: 21300000, guid: c1abaf6d3754b446db598a284b9a3434, type: 3}
  - {fileID: 21300000, guid: 806ea9bd83c9449d7ac2f1c169bdac04, type: 3}
  - {fileID: 21300000, guid: 26f0b1cdc65874fe4a46e7797679124c, type: 3}
  - {fileID: 21300000, guid: af54944e9e89e4e12b9d766e8545e271, type: 3}
  - {fileID: 21300000, guid: 27154e4ee15bf46f382827e774725a9a, type: 3}
  - {fileID: 21300000, guid: 1d9c885eccb054f15971bf139c00fa8f, type: 3}
  - {fileID: 21300000, guid: 557bce5e4459d4e36aef6f05a602fef1, type: 3}
  - {fileID: 21300000, guid: 0bf0c09e1551249c0a51e00576a0eb61, type: 3}
  - {fileID: 21300000, guid: ae7e54ae88dc6462c82607a965f9a2cb, type: 3}
  - {fileID: 21300000, guid: 0631afdedd6c9458ea232f65f521f6d8, type: 3}
  - {fileID: 21300000, guid: 63ddc30f3a42f4145b760b28cc745e72, type: 3}
  - {fileID: 21300000, guid: 2cb9cc2f4dee4411585f77bc893ef007, type: 3}
  - {fileID: 21300000, guid: 410ac53fa68214a4491e0a36baf56d9f, type: 3}
  - {fileID: 21300000, guid: d226ea6f2a75b4609bec190cc03ea991, type: 3}
  - {fileID: 21300000, guid: ba56db9fb412348e5bb30fcc51149fde, type: 3}
  - {fileID: 21300000, guid: 1de4f7ff6b5154d709b73d49a59cab2b, type: 3}
  m_PackedSpriteNamesToIndex:
  - radio_btn
  - mikser_cien
  - przybory_kolek_1
  - okap_cien
  - zegar_oczy
  - gar2
  - przybory_kolek_3
  - ogorek
  - okap_btn_2b
  - gar2_cien
  - okap_oczy
  - radio_lampka_zolta
  - mikser_chlapniecie
  - czajnik
  - radio_polka_cien
  - mikser_kabel
  - okap_ciag1
  - radio_lampka_rozowa
  - okap_btn_1b
  - gar1_oczy
  - pomidor
  - okap_powieki
  - mikser_oczy
  - okap_btn_1a
  - radio_lampka_zolta
  - zegar_was2
  - gar1_pokrywka
  - radio_polka
  - czajnik_powieki
  - radio_btn_wcisniety
  - pomidor_cien
  - ogorek_cien
  - radio_lampka_rozowa
  - przybory_lyzka_1
  - radio_lampka_zielona
  - czajnik_oczy
  - radio_lampka_czerwona
  - zegar_powieki
  - przybory_kolek_2
  - gar2_oczy
  - gar1_cien
  - przybory_lyzka_3
  - okap_btn_2a
  - PODGLAD_07_kuchnia_do_zapisu
  - radio_lampka_czerwona
  - gar1_powieki
  - radio_btn_wcisniety
  - przybory_kolek_4
  - zegar_cien
  - przybory_deseczka
  - zegar_was1
  - czajnik_cien
  - okap_ciag2
  - przybory_lyzka_2
  - okap_btn_3a
  - okap_ciag
  - dymek
  - mikser_btn_czerwony
  - radio_prad
  - dymek
  - radio
  - radio_prad
  - radio_btn
  - mikser_wlacznik
  - przybory_lyzka_4
  - radio_lampka_zielona
  - radio
  m_RenderDataMap: {}
  m_Tag: kuchnia
  m_IsVariant: 0
