Library/Bee/artifacts/mvdfrm/Unity.2D.Common.Runtime.ref.dll_21EA7B739599EDE7.mvfrm
Library/Bee/artifacts/mvdfrm/Unity.Burst.ref.dll_CA08E8CAF93FD4E6.mvfrm
Library/Bee/artifacts/mvdfrm/Unity.InternalAPIEngineBridge.001.ref.dll_D7889E4AEE2EC301.mvfrm
Library/Bee/artifacts/mvdfrm/Unity.Mathematics.ref.dll_924E758743472E0C.mvfrm
Library/Bee/artifacts/mvdfrm/UnityEngine.UI.ref.dll_185BE6B90A175B42.mvfrm
Library/Bee/artifacts/mvdfrm/UnityEngine.AccessibilityModule.dll_1D465B7227DFA9C3.mvfrm
Library/Bee/artifacts/mvdfrm/UnityEngine.AIModule.dll_B28EF0502ED0DB47.mvfrm
Library/Bee/artifacts/mvdfrm/UnityEngine.AndroidJNIModule.dll_2F2CD77DA52E4485.mvfrm
Library/Bee/artifacts/mvdfrm/UnityEngine.AnimationModule.dll_EBD6EFCCD4ABDFA9.mvfrm
Library/Bee/artifacts/mvdfrm/UnityEngine.ARModule.dll_6C01B5538BEE3A10.mvfrm
Library/Bee/artifacts/mvdfrm/UnityEngine.AssetBundleModule.dll_EF7B78C6B36D75F7.mvfrm
Library/Bee/artifacts/mvdfrm/UnityEngine.AudioModule.dll_A3D72B6302CBAE5B.mvfrm
Library/Bee/artifacts/mvdfrm/UnityEngine.ClothModule.dll_0ABF885DDCE88D3F.mvfrm
Library/Bee/artifacts/mvdfrm/UnityEngine.CoreModule.dll_83B67CCD622CE47E.mvfrm
Library/Bee/artifacts/mvdfrm/UnityEngine.CrashReportingModule.dll_276B81569C6832D6.mvfrm
Library/Bee/artifacts/mvdfrm/UnityEngine.DirectorModule.dll_FA35F9676689621B.mvfrm
Library/Bee/artifacts/mvdfrm/UnityEngine.dll_A653801240E55CB7.mvfrm
Library/Bee/artifacts/mvdfrm/UnityEngine.DSPGraphModule.dll_FF875AD0D8EA333C.mvfrm
Library/Bee/artifacts/mvdfrm/UnityEngine.GameCenterModule.dll_597A21986B6F3576.mvfrm
Library/Bee/artifacts/mvdfrm/UnityEngine.GIModule.dll_4ACB395DCA7FC361.mvfrm
Library/Bee/artifacts/mvdfrm/UnityEngine.GridModule.dll_612798BB7A817A75.mvfrm
Library/Bee/artifacts/mvdfrm/UnityEngine.HotReloadModule.dll_6D1FADD2AFDEFB2B.mvfrm
Library/Bee/artifacts/mvdfrm/UnityEngine.ImageConversionModule.dll_DB122048D215FF56.mvfrm
Library/Bee/artifacts/mvdfrm/UnityEngine.IMGUIModule.dll_DC36CAC9C8FD423C.mvfrm
Library/Bee/artifacts/mvdfrm/UnityEngine.InputLegacyModule.dll_80C093E54B5F2BE8.mvfrm
Library/Bee/artifacts/mvdfrm/UnityEngine.InputModule.dll_0A4CF3137903D2FF.mvfrm
Library/Bee/artifacts/mvdfrm/UnityEngine.JSONSerializeModule.dll_7D5DE4AE271B0A4D.mvfrm
Library/Bee/artifacts/mvdfrm/UnityEngine.LocalizationModule.dll_950AE3F4F6119748.mvfrm
Library/Bee/artifacts/mvdfrm/UnityEngine.ParticleSystemModule.dll_7A7DCAA30A79BE64.mvfrm
Library/Bee/artifacts/mvdfrm/UnityEngine.PerformanceReportingModule.dll_27A7E4720F6C773D.mvfrm
Library/Bee/artifacts/mvdfrm/UnityEngine.Physics2DModule.dll_387CDFBD75A8D73E.mvfrm
Library/Bee/artifacts/mvdfrm/UnityEngine.PhysicsModule.dll_9D62426F8523828C.mvfrm
Library/Bee/artifacts/mvdfrm/UnityEngine.ProfilerModule.dll_2C7C329DFFE2E928.mvfrm
Library/Bee/artifacts/mvdfrm/UnityEngine.RuntimeInitializeOnLoadManagerInitializerModule.dll_04DBAAD8D051C407.mvfrm
Library/Bee/artifacts/mvdfrm/UnityEngine.ScreenCaptureModule.dll_974592333B8736AF.mvfrm
Library/Bee/artifacts/mvdfrm/UnityEngine.SharedInternalsModule.dll_5F235F1E4943FAA6.mvfrm
Library/Bee/artifacts/mvdfrm/UnityEngine.SpriteMaskModule.dll_42A694288CDECAF0.mvfrm
Library/Bee/artifacts/mvdfrm/UnityEngine.SpriteShapeModule.dll_08DCA621690FAE01.mvfrm
Library/Bee/artifacts/mvdfrm/UnityEngine.StreamingModule.dll_A06BDD1D243396E7.mvfrm
Library/Bee/artifacts/mvdfrm/UnityEngine.SubstanceModule.dll_7D16F1666F8694F5.mvfrm
Library/Bee/artifacts/mvdfrm/UnityEngine.SubsystemsModule.dll_AD53FA8A5B26B303.mvfrm
Library/Bee/artifacts/mvdfrm/UnityEngine.TerrainModule.dll_B7A8BDDE5AE1CB7A.mvfrm
Library/Bee/artifacts/mvdfrm/UnityEngine.TerrainPhysicsModule.dll_7AF8737623BCB8F1.mvfrm
Library/Bee/artifacts/mvdfrm/UnityEngine.TextCoreFontEngineModule.dll_E31483621CA2D03C.mvfrm
Library/Bee/artifacts/mvdfrm/UnityEngine.TextCoreTextEngineModule.dll_2AFCB9D3AC26895A.mvfrm
Library/Bee/artifacts/mvdfrm/UnityEngine.TextRenderingModule.dll_C085043DF2BEB6A4.mvfrm
Library/Bee/artifacts/mvdfrm/UnityEngine.TilemapModule.dll_56A5255F729EAC83.mvfrm
Library/Bee/artifacts/mvdfrm/UnityEngine.TLSModule.dll_280000D259D85060.mvfrm
Library/Bee/artifacts/mvdfrm/UnityEngine.UIElementsModule.dll_B1925BF25E52EEFA.mvfrm
Library/Bee/artifacts/mvdfrm/UnityEngine.UIElementsNativeModule.dll_2F1D80862A315D11.mvfrm
Library/Bee/artifacts/mvdfrm/UnityEngine.UIModule.dll_AE028E7D8B17E0F3.mvfrm
Library/Bee/artifacts/mvdfrm/UnityEngine.UmbraModule.dll_1EABD77B8FF259CE.mvfrm
Library/Bee/artifacts/mvdfrm/UnityEngine.UNETModule.dll_165CC4B6AF3BD9F7.mvfrm
Library/Bee/artifacts/mvdfrm/UnityEngine.UnityAnalyticsModule.dll_9A1D3B6CB6A11060.mvfrm
Library/Bee/artifacts/mvdfrm/UnityEngine.UnityConnectModule.dll_C481289BA795D234.mvfrm
Library/Bee/artifacts/mvdfrm/UnityEngine.UnityCurlModule.dll_1EF390FE44BFD196.mvfrm
Library/Bee/artifacts/mvdfrm/UnityEngine.UnityTestProtocolModule.dll_40DC728C0F26B104.mvfrm
Library/Bee/artifacts/mvdfrm/UnityEngine.UnityWebRequestAssetBundleModule.dll_B46D42BABC907B31.mvfrm
Library/Bee/artifacts/mvdfrm/UnityEngine.UnityWebRequestAudioModule.dll_9FA4385095D741D5.mvfrm
Library/Bee/artifacts/mvdfrm/UnityEngine.UnityWebRequestModule.dll_ECB127F2DD0A99D5.mvfrm
Library/Bee/artifacts/mvdfrm/UnityEngine.UnityWebRequestTextureModule.dll_F195C6C30E2E944A.mvfrm
Library/Bee/artifacts/mvdfrm/UnityEngine.UnityWebRequestWWWModule.dll_F5BEFF2F9BE645C6.mvfrm
Library/Bee/artifacts/mvdfrm/UnityEngine.VehiclesModule.dll_71F8F2E6E0B331B6.mvfrm
Library/Bee/artifacts/mvdfrm/UnityEngine.VFXModule.dll_A8DE99413045B9CD.mvfrm
Library/Bee/artifacts/mvdfrm/UnityEngine.VideoModule.dll_C8E0AFCDC55DCA00.mvfrm
Library/Bee/artifacts/mvdfrm/UnityEngine.VRModule.dll_00D4B5032CD2666B.mvfrm
Library/Bee/artifacts/mvdfrm/UnityEngine.WindModule.dll_FA0557F5F36362E7.mvfrm
Library/Bee/artifacts/mvdfrm/UnityEngine.XRModule.dll_33937807B60CB3C9.mvfrm
Library/Bee/artifacts/mvdfrm/Unity.Burst.Cecil.dll_96A372D315648A07.mvfrm
Library/Bee/artifacts/mvdfrm/Unity.Burst.Cecil.Mdb.dll_4CFCC03182BC9704.mvfrm
Library/Bee/artifacts/mvdfrm/Unity.Burst.Cecil.Pdb.dll_644F38A101719887.mvfrm
Library/Bee/artifacts/mvdfrm/Unity.Burst.Cecil.Rocks.dll_2EE31070D8CA7F87.mvfrm
Library/Bee/artifacts/mvdfrm/Unity.Burst.Unsafe.dll_0F0F2F2B2B4CD55C.mvfrm