-target:library
-out:"Library/Bee/artifacts/900b0aP.dag/Unity.Services.Core.Internal.dll"
-refout:"Library/Bee/artifacts/900b0aP.dag/Unity.Services.Core.Internal.ref.dll"
-define:UNITY_2021_3_10
-define:UNITY_2021_3
-define:UNITY_2021
-define:UNITY_5_3_OR_NEWER
-define:UNITY_5_4_OR_NEWER
-define:UNITY_5_5_OR_NEWER
-define:UNITY_5_6_OR_NEWER
-define:UNITY_2017_1_OR_NEWER
-define:UNITY_2017_2_OR_NEWER
-define:UNITY_2017_3_OR_NEWER
-define:UNITY_2017_4_OR_NEWER
-define:UNITY_2018_1_OR_NEWER
-define:UNITY_2018_2_OR_NEWER
-define:UNITY_2018_3_OR_NEWER
-define:UNITY_2018_4_OR_NEWER
-define:UNITY_2019_1_OR_NEWER
-define:UNITY_2019_2_OR_NEWER
-define:UNITY_2019_3_OR_NEWER
-define:UNITY_2019_4_OR_NEWER
-define:UNITY_2020_1_OR_NEWER
-define:UNITY_2020_2_OR_NEWER
-define:UNITY_2020_3_OR_NEWER
-define:UNITY_2021_1_OR_NEWER
-define:UNITY_2021_2_OR_NEWER
-define:UNITY_2021_3_OR_NEWER
-define:USE_SEARCH_ENGINE_API
-define:USE_SEARCH_TABLE
-define:USE_SEARCH_MODULE
-define:USE_PROPERTY_DATABASE
-define:USE_SEARCH_EXTENSION_API
-define:SCENE_TEMPLATE_MODULE
-define:ENABLE_AR
-define:ENABLE_AUDIO
-define:ENABLE_CACHING
-define:ENABLE_CLOTH
-define:ENABLE_MICROPHONE
-define:ENABLE_MULTIPLE_DISPLAYS
-define:ENABLE_PHYSICS
-define:ENABLE_TEXTURE_STREAMING
-define:ENABLE_UNET
-define:ENABLE_LZMA
-define:ENABLE_UNITYEVENTS
-define:ENABLE_VR
-define:ENABLE_WEBCAM
-define:ENABLE_UNITYWEBREQUEST
-define:ENABLE_WWW
-define:ENABLE_CLOUD_SERVICES
-define:ENABLE_CLOUD_SERVICES_COLLAB
-define:ENABLE_CLOUD_SERVICES_COLLAB_SOFTLOCKS
-define:ENABLE_CLOUD_SERVICES_ADS
-define:ENABLE_CLOUD_SERVICES_USE_WEBREQUEST
-define:ENABLE_CLOUD_SERVICES_CRASH_REPORTING
-define:ENABLE_CLOUD_SERVICES_PURCHASING
-define:ENABLE_CLOUD_SERVICES_ANALYTICS
-define:ENABLE_CLOUD_SERVICES_UNET
-define:ENABLE_CLOUD_SERVICES_BUILD
-define:ENABLE_CLOUD_LICENSE
-define:ENABLE_EDITOR_HUB_LICENSE
-define:ENABLE_WEBSOCKET_CLIENT
-define:ENABLE_DIRECTOR_AUDIO
-define:ENABLE_DIRECTOR_TEXTURE
-define:ENABLE_MANAGED_JOBS
-define:ENABLE_MANAGED_TRANSFORM_JOBS
-define:ENABLE_MANAGED_ANIMATION_JOBS
-define:ENABLE_MANAGED_AUDIO_JOBS
-define:ENABLE_ENGINE_CODE_STRIPPING
-define:ENABLE_ONSCREEN_KEYBOARD
-define:ENABLE_MANAGED_UNITYTLS
-define:INCLUDE_DYNAMIC_GI
-define:ENABLE_SCRIPTING_GC_WBARRIERS
-define:PLATFORM_SUPPORTS_MONO
-define:ENABLE_VIDEO
-define:ENABLE_ACCELERATOR_CLIENT_DEBUGGING
-define:PLATFORM_IOS
-define:TEXTCORE_1_0_OR_NEWER
-define:ENABLE_RUNTIME_GI
-define:ENABLE_GAMECENTER
-define:ENABLE_NETWORK
-define:ENABLE_IOS_ON_DEMAND_RESOURCES
-define:ENABLE_IOS_APP_SLICING
-define:PLAYERCONNECTION_LISTENS_FIXED_PORT
-define:DEBUGGER_LISTENS_FIXED_PORT
-define:PLATFORM_SUPPORTS_ADS_ID
-define:SUPPORT_ENVIRONMENT_VARIABLES
-define:PLATFORM_SUPPORTS_PROFILER
-define:ENABLE_CRUNCH_TEXTURE_COMPRESSION
-define:ENABLE_ETC_COMPRESSION
-define:ENABLE_UNITYADS_RUNTIME
-define:UNITY_UNITYADS_API
-define:UNITY_IOS
-define:PLATFORM_IPHONE
-define:UNITY_IPHONE
-define:UNITY_IPHONE_API
-define:UNITY_HAS_GOOGLEVR
-define:ENABLE_SPATIALTRACKING
-define:ENABLE_IL2CPP
-define:NET_STANDARD_2_0
-define:NET_STANDARD
-define:NET_STANDARD_2_1
-define:NETSTANDARD
-define:NETSTANDARD2_1
-define:UNITY_PRO_LICENSE
-define:ENABLE_CUSTOM_RENDER_TEXTURE
-define:ENABLE_DIRECTOR
-define:ENABLE_LOCALIZATION
-define:ENABLE_SPRITES
-define:ENABLE_TERRAIN
-define:ENABLE_TILEMAP
-define:ENABLE_TIMELINE
-define:ENABLE_LEGACY_INPUT_MANAGER
-define:CSHARP_7_OR_LATER
-define:CSHARP_7_3_OR_NEWER
-r:"/Applications/Unity/Hub/Editor/2020.3.29f1/2021.3.10f1/PlaybackEngines/iOSSupport/Variations/il2cpp/Managed/UnityEngine.AccessibilityModule.dll"
-r:"/Applications/Unity/Hub/Editor/2020.3.29f1/2021.3.10f1/PlaybackEngines/iOSSupport/Variations/il2cpp/Managed/UnityEngine.AIModule.dll"
-r:"/Applications/Unity/Hub/Editor/2020.3.29f1/2021.3.10f1/PlaybackEngines/iOSSupport/Variations/il2cpp/Managed/UnityEngine.AndroidJNIModule.dll"
-r:"/Applications/Unity/Hub/Editor/2020.3.29f1/2021.3.10f1/PlaybackEngines/iOSSupport/Variations/il2cpp/Managed/UnityEngine.AnimationModule.dll"
-r:"/Applications/Unity/Hub/Editor/2020.3.29f1/2021.3.10f1/PlaybackEngines/iOSSupport/Variations/il2cpp/Managed/UnityEngine.ARModule.dll"
-r:"/Applications/Unity/Hub/Editor/2020.3.29f1/2021.3.10f1/PlaybackEngines/iOSSupport/Variations/il2cpp/Managed/UnityEngine.AssetBundleModule.dll"
-r:"/Applications/Unity/Hub/Editor/2020.3.29f1/2021.3.10f1/PlaybackEngines/iOSSupport/Variations/il2cpp/Managed/UnityEngine.AudioModule.dll"
-r:"/Applications/Unity/Hub/Editor/2020.3.29f1/2021.3.10f1/PlaybackEngines/iOSSupport/Variations/il2cpp/Managed/UnityEngine.ClothModule.dll"
-r:"/Applications/Unity/Hub/Editor/2020.3.29f1/2021.3.10f1/PlaybackEngines/iOSSupport/Variations/il2cpp/Managed/UnityEngine.CoreModule.dll"
-r:"/Applications/Unity/Hub/Editor/2020.3.29f1/2021.3.10f1/PlaybackEngines/iOSSupport/Variations/il2cpp/Managed/UnityEngine.CrashReportingModule.dll"
-r:"/Applications/Unity/Hub/Editor/2020.3.29f1/2021.3.10f1/PlaybackEngines/iOSSupport/Variations/il2cpp/Managed/UnityEngine.DirectorModule.dll"
-r:"/Applications/Unity/Hub/Editor/2020.3.29f1/2021.3.10f1/PlaybackEngines/iOSSupport/Variations/il2cpp/Managed/UnityEngine.dll"
-r:"/Applications/Unity/Hub/Editor/2020.3.29f1/2021.3.10f1/PlaybackEngines/iOSSupport/Variations/il2cpp/Managed/UnityEngine.DSPGraphModule.dll"
-r:"/Applications/Unity/Hub/Editor/2020.3.29f1/2021.3.10f1/PlaybackEngines/iOSSupport/Variations/il2cpp/Managed/UnityEngine.GameCenterModule.dll"
-r:"/Applications/Unity/Hub/Editor/2020.3.29f1/2021.3.10f1/PlaybackEngines/iOSSupport/Variations/il2cpp/Managed/UnityEngine.GIModule.dll"
-r:"/Applications/Unity/Hub/Editor/2020.3.29f1/2021.3.10f1/PlaybackEngines/iOSSupport/Variations/il2cpp/Managed/UnityEngine.GridModule.dll"
-r:"/Applications/Unity/Hub/Editor/2020.3.29f1/2021.3.10f1/PlaybackEngines/iOSSupport/Variations/il2cpp/Managed/UnityEngine.HotReloadModule.dll"
-r:"/Applications/Unity/Hub/Editor/2020.3.29f1/2021.3.10f1/PlaybackEngines/iOSSupport/Variations/il2cpp/Managed/UnityEngine.ImageConversionModule.dll"
-r:"/Applications/Unity/Hub/Editor/2020.3.29f1/2021.3.10f1/PlaybackEngines/iOSSupport/Variations/il2cpp/Managed/UnityEngine.IMGUIModule.dll"
-r:"/Applications/Unity/Hub/Editor/2020.3.29f1/2021.3.10f1/PlaybackEngines/iOSSupport/Variations/il2cpp/Managed/UnityEngine.InputLegacyModule.dll"
-r:"/Applications/Unity/Hub/Editor/2020.3.29f1/2021.3.10f1/PlaybackEngines/iOSSupport/Variations/il2cpp/Managed/UnityEngine.InputModule.dll"
-r:"/Applications/Unity/Hub/Editor/2020.3.29f1/2021.3.10f1/PlaybackEngines/iOSSupport/Variations/il2cpp/Managed/UnityEngine.JSONSerializeModule.dll"
-r:"/Applications/Unity/Hub/Editor/2020.3.29f1/2021.3.10f1/PlaybackEngines/iOSSupport/Variations/il2cpp/Managed/UnityEngine.LocalizationModule.dll"
-r:"/Applications/Unity/Hub/Editor/2020.3.29f1/2021.3.10f1/PlaybackEngines/iOSSupport/Variations/il2cpp/Managed/UnityEngine.ParticleSystemModule.dll"
-r:"/Applications/Unity/Hub/Editor/2020.3.29f1/2021.3.10f1/PlaybackEngines/iOSSupport/Variations/il2cpp/Managed/UnityEngine.PerformanceReportingModule.dll"
-r:"/Applications/Unity/Hub/Editor/2020.3.29f1/2021.3.10f1/PlaybackEngines/iOSSupport/Variations/il2cpp/Managed/UnityEngine.Physics2DModule.dll"
-r:"/Applications/Unity/Hub/Editor/2020.3.29f1/2021.3.10f1/PlaybackEngines/iOSSupport/Variations/il2cpp/Managed/UnityEngine.PhysicsModule.dll"
-r:"/Applications/Unity/Hub/Editor/2020.3.29f1/2021.3.10f1/PlaybackEngines/iOSSupport/Variations/il2cpp/Managed/UnityEngine.ProfilerModule.dll"
-r:"/Applications/Unity/Hub/Editor/2020.3.29f1/2021.3.10f1/PlaybackEngines/iOSSupport/Variations/il2cpp/Managed/UnityEngine.RuntimeInitializeOnLoadManagerInitializerModule.dll"
-r:"/Applications/Unity/Hub/Editor/2020.3.29f1/2021.3.10f1/PlaybackEngines/iOSSupport/Variations/il2cpp/Managed/UnityEngine.ScreenCaptureModule.dll"
-r:"/Applications/Unity/Hub/Editor/2020.3.29f1/2021.3.10f1/PlaybackEngines/iOSSupport/Variations/il2cpp/Managed/UnityEngine.SharedInternalsModule.dll"
-r:"/Applications/Unity/Hub/Editor/2020.3.29f1/2021.3.10f1/PlaybackEngines/iOSSupport/Variations/il2cpp/Managed/UnityEngine.SpriteMaskModule.dll"
-r:"/Applications/Unity/Hub/Editor/2020.3.29f1/2021.3.10f1/PlaybackEngines/iOSSupport/Variations/il2cpp/Managed/UnityEngine.SpriteShapeModule.dll"
-r:"/Applications/Unity/Hub/Editor/2020.3.29f1/2021.3.10f1/PlaybackEngines/iOSSupport/Variations/il2cpp/Managed/UnityEngine.StreamingModule.dll"
-r:"/Applications/Unity/Hub/Editor/2020.3.29f1/2021.3.10f1/PlaybackEngines/iOSSupport/Variations/il2cpp/Managed/UnityEngine.SubstanceModule.dll"
-r:"/Applications/Unity/Hub/Editor/2020.3.29f1/2021.3.10f1/PlaybackEngines/iOSSupport/Variations/il2cpp/Managed/UnityEngine.SubsystemsModule.dll"
-r:"/Applications/Unity/Hub/Editor/2020.3.29f1/2021.3.10f1/PlaybackEngines/iOSSupport/Variations/il2cpp/Managed/UnityEngine.TerrainModule.dll"
-r:"/Applications/Unity/Hub/Editor/2020.3.29f1/2021.3.10f1/PlaybackEngines/iOSSupport/Variations/il2cpp/Managed/UnityEngine.TerrainPhysicsModule.dll"
-r:"/Applications/Unity/Hub/Editor/2020.3.29f1/2021.3.10f1/PlaybackEngines/iOSSupport/Variations/il2cpp/Managed/UnityEngine.TextCoreFontEngineModule.dll"
-r:"/Applications/Unity/Hub/Editor/2020.3.29f1/2021.3.10f1/PlaybackEngines/iOSSupport/Variations/il2cpp/Managed/UnityEngine.TextCoreTextEngineModule.dll"
-r:"/Applications/Unity/Hub/Editor/2020.3.29f1/2021.3.10f1/PlaybackEngines/iOSSupport/Variations/il2cpp/Managed/UnityEngine.TextRenderingModule.dll"
-r:"/Applications/Unity/Hub/Editor/2020.3.29f1/2021.3.10f1/PlaybackEngines/iOSSupport/Variations/il2cpp/Managed/UnityEngine.TilemapModule.dll"
-r:"/Applications/Unity/Hub/Editor/2020.3.29f1/2021.3.10f1/PlaybackEngines/iOSSupport/Variations/il2cpp/Managed/UnityEngine.TLSModule.dll"
-r:"/Applications/Unity/Hub/Editor/2020.3.29f1/2021.3.10f1/PlaybackEngines/iOSSupport/Variations/il2cpp/Managed/UnityEngine.UIElementsModule.dll"
-r:"/Applications/Unity/Hub/Editor/2020.3.29f1/2021.3.10f1/PlaybackEngines/iOSSupport/Variations/il2cpp/Managed/UnityEngine.UIElementsNativeModule.dll"
-r:"/Applications/Unity/Hub/Editor/2020.3.29f1/2021.3.10f1/PlaybackEngines/iOSSupport/Variations/il2cpp/Managed/UnityEngine.UIModule.dll"
-r:"/Applications/Unity/Hub/Editor/2020.3.29f1/2021.3.10f1/PlaybackEngines/iOSSupport/Variations/il2cpp/Managed/UnityEngine.UmbraModule.dll"
-r:"/Applications/Unity/Hub/Editor/2020.3.29f1/2021.3.10f1/PlaybackEngines/iOSSupport/Variations/il2cpp/Managed/UnityEngine.UNETModule.dll"
-r:"/Applications/Unity/Hub/Editor/2020.3.29f1/2021.3.10f1/PlaybackEngines/iOSSupport/Variations/il2cpp/Managed/UnityEngine.UnityAnalyticsModule.dll"
-r:"/Applications/Unity/Hub/Editor/2020.3.29f1/2021.3.10f1/PlaybackEngines/iOSSupport/Variations/il2cpp/Managed/UnityEngine.UnityConnectModule.dll"
-r:"/Applications/Unity/Hub/Editor/2020.3.29f1/2021.3.10f1/PlaybackEngines/iOSSupport/Variations/il2cpp/Managed/UnityEngine.UnityCurlModule.dll"
-r:"/Applications/Unity/Hub/Editor/2020.3.29f1/2021.3.10f1/PlaybackEngines/iOSSupport/Variations/il2cpp/Managed/UnityEngine.UnityTestProtocolModule.dll"
-r:"/Applications/Unity/Hub/Editor/2020.3.29f1/2021.3.10f1/PlaybackEngines/iOSSupport/Variations/il2cpp/Managed/UnityEngine.UnityWebRequestAssetBundleModule.dll"
-r:"/Applications/Unity/Hub/Editor/2020.3.29f1/2021.3.10f1/PlaybackEngines/iOSSupport/Variations/il2cpp/Managed/UnityEngine.UnityWebRequestAudioModule.dll"
-r:"/Applications/Unity/Hub/Editor/2020.3.29f1/2021.3.10f1/PlaybackEngines/iOSSupport/Variations/il2cpp/Managed/UnityEngine.UnityWebRequestModule.dll"
-r:"/Applications/Unity/Hub/Editor/2020.3.29f1/2021.3.10f1/PlaybackEngines/iOSSupport/Variations/il2cpp/Managed/UnityEngine.UnityWebRequestTextureModule.dll"
-r:"/Applications/Unity/Hub/Editor/2020.3.29f1/2021.3.10f1/PlaybackEngines/iOSSupport/Variations/il2cpp/Managed/UnityEngine.UnityWebRequestWWWModule.dll"
-r:"/Applications/Unity/Hub/Editor/2020.3.29f1/2021.3.10f1/PlaybackEngines/iOSSupport/Variations/il2cpp/Managed/UnityEngine.VehiclesModule.dll"
-r:"/Applications/Unity/Hub/Editor/2020.3.29f1/2021.3.10f1/PlaybackEngines/iOSSupport/Variations/il2cpp/Managed/UnityEngine.VFXModule.dll"
-r:"/Applications/Unity/Hub/Editor/2020.3.29f1/2021.3.10f1/PlaybackEngines/iOSSupport/Variations/il2cpp/Managed/UnityEngine.VideoModule.dll"
-r:"/Applications/Unity/Hub/Editor/2020.3.29f1/2021.3.10f1/PlaybackEngines/iOSSupport/Variations/il2cpp/Managed/UnityEngine.VRModule.dll"
-r:"/Applications/Unity/Hub/Editor/2020.3.29f1/2021.3.10f1/PlaybackEngines/iOSSupport/Variations/il2cpp/Managed/UnityEngine.WindModule.dll"
-r:"/Applications/Unity/Hub/Editor/2020.3.29f1/2021.3.10f1/PlaybackEngines/iOSSupport/Variations/il2cpp/Managed/UnityEngine.XRModule.dll"
-r:"/Applications/Unity/Hub/Editor/2020.3.29f1/2021.3.10f1/Unity.app/Contents/NetStandard/compat/2.1.0/shims/netfx/mscorlib.dll"
-r:"/Applications/Unity/Hub/Editor/2020.3.29f1/2021.3.10f1/Unity.app/Contents/NetStandard/compat/2.1.0/shims/netfx/System.ComponentModel.Composition.dll"
-r:"/Applications/Unity/Hub/Editor/2020.3.29f1/2021.3.10f1/Unity.app/Contents/NetStandard/compat/2.1.0/shims/netfx/System.Core.dll"
-r:"/Applications/Unity/Hub/Editor/2020.3.29f1/2021.3.10f1/Unity.app/Contents/NetStandard/compat/2.1.0/shims/netfx/System.Data.dll"
-r:"/Applications/Unity/Hub/Editor/2020.3.29f1/2021.3.10f1/Unity.app/Contents/NetStandard/compat/2.1.0/shims/netfx/System.dll"
-r:"/Applications/Unity/Hub/Editor/2020.3.29f1/2021.3.10f1/Unity.app/Contents/NetStandard/compat/2.1.0/shims/netfx/System.Drawing.dll"
-r:"/Applications/Unity/Hub/Editor/2020.3.29f1/2021.3.10f1/Unity.app/Contents/NetStandard/compat/2.1.0/shims/netfx/System.IO.Compression.FileSystem.dll"
-r:"/Applications/Unity/Hub/Editor/2020.3.29f1/2021.3.10f1/Unity.app/Contents/NetStandard/compat/2.1.0/shims/netfx/System.Net.dll"
-r:"/Applications/Unity/Hub/Editor/2020.3.29f1/2021.3.10f1/Unity.app/Contents/NetStandard/compat/2.1.0/shims/netfx/System.Numerics.dll"
-r:"/Applications/Unity/Hub/Editor/2020.3.29f1/2021.3.10f1/Unity.app/Contents/NetStandard/compat/2.1.0/shims/netfx/System.Runtime.Serialization.dll"
-r:"/Applications/Unity/Hub/Editor/2020.3.29f1/2021.3.10f1/Unity.app/Contents/NetStandard/compat/2.1.0/shims/netfx/System.ServiceModel.Web.dll"
-r:"/Applications/Unity/Hub/Editor/2020.3.29f1/2021.3.10f1/Unity.app/Contents/NetStandard/compat/2.1.0/shims/netfx/System.Transactions.dll"
-r:"/Applications/Unity/Hub/Editor/2020.3.29f1/2021.3.10f1/Unity.app/Contents/NetStandard/compat/2.1.0/shims/netfx/System.Web.dll"
-r:"/Applications/Unity/Hub/Editor/2020.3.29f1/2021.3.10f1/Unity.app/Contents/NetStandard/compat/2.1.0/shims/netfx/System.Windows.dll"
-r:"/Applications/Unity/Hub/Editor/2020.3.29f1/2021.3.10f1/Unity.app/Contents/NetStandard/compat/2.1.0/shims/netfx/System.Xml.dll"
-r:"/Applications/Unity/Hub/Editor/2020.3.29f1/2021.3.10f1/Unity.app/Contents/NetStandard/compat/2.1.0/shims/netfx/System.Xml.Linq.dll"
-r:"/Applications/Unity/Hub/Editor/2020.3.29f1/2021.3.10f1/Unity.app/Contents/NetStandard/compat/2.1.0/shims/netfx/System.Xml.Serialization.dll"
-r:"/Applications/Unity/Hub/Editor/2020.3.29f1/2021.3.10f1/Unity.app/Contents/NetStandard/compat/2.1.0/shims/netstandard/Microsoft.Win32.Primitives.dll"
-r:"/Applications/Unity/Hub/Editor/2020.3.29f1/2021.3.10f1/Unity.app/Contents/NetStandard/compat/2.1.0/shims/netstandard/System.AppContext.dll"
-r:"/Applications/Unity/Hub/Editor/2020.3.29f1/2021.3.10f1/Unity.app/Contents/NetStandard/compat/2.1.0/shims/netstandard/System.Buffers.dll"
-r:"/Applications/Unity/Hub/Editor/2020.3.29f1/2021.3.10f1/Unity.app/Contents/NetStandard/compat/2.1.0/shims/netstandard/System.Collections.Concurrent.dll"
-r:"/Applications/Unity/Hub/Editor/2020.3.29f1/2021.3.10f1/Unity.app/Contents/NetStandard/compat/2.1.0/shims/netstandard/System.Collections.dll"
-r:"/Applications/Unity/Hub/Editor/2020.3.29f1/2021.3.10f1/Unity.app/Contents/NetStandard/compat/2.1.0/shims/netstandard/System.Collections.NonGeneric.dll"
-r:"/Applications/Unity/Hub/Editor/2020.3.29f1/2021.3.10f1/Unity.app/Contents/NetStandard/compat/2.1.0/shims/netstandard/System.Collections.Specialized.dll"
-r:"/Applications/Unity/Hub/Editor/2020.3.29f1/2021.3.10f1/Unity.app/Contents/NetStandard/compat/2.1.0/shims/netstandard/System.ComponentModel.dll"
-r:"/Applications/Unity/Hub/Editor/2020.3.29f1/2021.3.10f1/Unity.app/Contents/NetStandard/compat/2.1.0/shims/netstandard/System.ComponentModel.EventBasedAsync.dll"
-r:"/Applications/Unity/Hub/Editor/2020.3.29f1/2021.3.10f1/Unity.app/Contents/NetStandard/compat/2.1.0/shims/netstandard/System.ComponentModel.Primitives.dll"
-r:"/Applications/Unity/Hub/Editor/2020.3.29f1/2021.3.10f1/Unity.app/Contents/NetStandard/compat/2.1.0/shims/netstandard/System.ComponentModel.TypeConverter.dll"
-r:"/Applications/Unity/Hub/Editor/2020.3.29f1/2021.3.10f1/Unity.app/Contents/NetStandard/compat/2.1.0/shims/netstandard/System.Console.dll"
-r:"/Applications/Unity/Hub/Editor/2020.3.29f1/2021.3.10f1/Unity.app/Contents/NetStandard/compat/2.1.0/shims/netstandard/System.Data.Common.dll"
-r:"/Applications/Unity/Hub/Editor/2020.3.29f1/2021.3.10f1/Unity.app/Contents/NetStandard/compat/2.1.0/shims/netstandard/System.Diagnostics.Contracts.dll"
-r:"/Applications/Unity/Hub/Editor/2020.3.29f1/2021.3.10f1/Unity.app/Contents/NetStandard/compat/2.1.0/shims/netstandard/System.Diagnostics.Debug.dll"
-r:"/Applications/Unity/Hub/Editor/2020.3.29f1/2021.3.10f1/Unity.app/Contents/NetStandard/compat/2.1.0/shims/netstandard/System.Diagnostics.FileVersionInfo.dll"
-r:"/Applications/Unity/Hub/Editor/2020.3.29f1/2021.3.10f1/Unity.app/Contents/NetStandard/compat/2.1.0/shims/netstandard/System.Diagnostics.Process.dll"
-r:"/Applications/Unity/Hub/Editor/2020.3.29f1/2021.3.10f1/Unity.app/Contents/NetStandard/compat/2.1.0/shims/netstandard/System.Diagnostics.StackTrace.dll"
-r:"/Applications/Unity/Hub/Editor/2020.3.29f1/2021.3.10f1/Unity.app/Contents/NetStandard/compat/2.1.0/shims/netstandard/System.Diagnostics.TextWriterTraceListener.dll"
-r:"/Applications/Unity/Hub/Editor/2020.3.29f1/2021.3.10f1/Unity.app/Contents/NetStandard/compat/2.1.0/shims/netstandard/System.Diagnostics.Tools.dll"
-r:"/Applications/Unity/Hub/Editor/2020.3.29f1/2021.3.10f1/Unity.app/Contents/NetStandard/compat/2.1.0/shims/netstandard/System.Diagnostics.TraceSource.dll"
-r:"/Applications/Unity/Hub/Editor/2020.3.29f1/2021.3.10f1/Unity.app/Contents/NetStandard/compat/2.1.0/shims/netstandard/System.Diagnostics.Tracing.dll"
-r:"/Applications/Unity/Hub/Editor/2020.3.29f1/2021.3.10f1/Unity.app/Contents/NetStandard/compat/2.1.0/shims/netstandard/System.Drawing.Primitives.dll"
-r:"/Applications/Unity/Hub/Editor/2020.3.29f1/2021.3.10f1/Unity.app/Contents/NetStandard/compat/2.1.0/shims/netstandard/System.Dynamic.Runtime.dll"
-r:"/Applications/Unity/Hub/Editor/2020.3.29f1/2021.3.10f1/Unity.app/Contents/NetStandard/compat/2.1.0/shims/netstandard/System.Globalization.Calendars.dll"
-r:"/Applications/Unity/Hub/Editor/2020.3.29f1/2021.3.10f1/Unity.app/Contents/NetStandard/compat/2.1.0/shims/netstandard/System.Globalization.dll"
-r:"/Applications/Unity/Hub/Editor/2020.3.29f1/2021.3.10f1/Unity.app/Contents/NetStandard/compat/2.1.0/shims/netstandard/System.Globalization.Extensions.dll"
-r:"/Applications/Unity/Hub/Editor/2020.3.29f1/2021.3.10f1/Unity.app/Contents/NetStandard/compat/2.1.0/shims/netstandard/System.IO.Compression.dll"
-r:"/Applications/Unity/Hub/Editor/2020.3.29f1/2021.3.10f1/Unity.app/Contents/NetStandard/compat/2.1.0/shims/netstandard/System.IO.Compression.ZipFile.dll"
-r:"/Applications/Unity/Hub/Editor/2020.3.29f1/2021.3.10f1/Unity.app/Contents/NetStandard/compat/2.1.0/shims/netstandard/System.IO.dll"
-r:"/Applications/Unity/Hub/Editor/2020.3.29f1/2021.3.10f1/Unity.app/Contents/NetStandard/compat/2.1.0/shims/netstandard/System.IO.FileSystem.dll"
-r:"/Applications/Unity/Hub/Editor/2020.3.29f1/2021.3.10f1/Unity.app/Contents/NetStandard/compat/2.1.0/shims/netstandard/System.IO.FileSystem.DriveInfo.dll"
-r:"/Applications/Unity/Hub/Editor/2020.3.29f1/2021.3.10f1/Unity.app/Contents/NetStandard/compat/2.1.0/shims/netstandard/System.IO.FileSystem.Primitives.dll"
-r:"/Applications/Unity/Hub/Editor/2020.3.29f1/2021.3.10f1/Unity.app/Contents/NetStandard/compat/2.1.0/shims/netstandard/System.IO.FileSystem.Watcher.dll"
-r:"/Applications/Unity/Hub/Editor/2020.3.29f1/2021.3.10f1/Unity.app/Contents/NetStandard/compat/2.1.0/shims/netstandard/System.IO.IsolatedStorage.dll"
-r:"/Applications/Unity/Hub/Editor/2020.3.29f1/2021.3.10f1/Unity.app/Contents/NetStandard/compat/2.1.0/shims/netstandard/System.IO.MemoryMappedFiles.dll"
-r:"/Applications/Unity/Hub/Editor/2020.3.29f1/2021.3.10f1/Unity.app/Contents/NetStandard/compat/2.1.0/shims/netstandard/System.IO.Pipes.dll"
-r:"/Applications/Unity/Hub/Editor/2020.3.29f1/2021.3.10f1/Unity.app/Contents/NetStandard/compat/2.1.0/shims/netstandard/System.IO.UnmanagedMemoryStream.dll"
-r:"/Applications/Unity/Hub/Editor/2020.3.29f1/2021.3.10f1/Unity.app/Contents/NetStandard/compat/2.1.0/shims/netstandard/System.Linq.dll"
-r:"/Applications/Unity/Hub/Editor/2020.3.29f1/2021.3.10f1/Unity.app/Contents/NetStandard/compat/2.1.0/shims/netstandard/System.Linq.Expressions.dll"
-r:"/Applications/Unity/Hub/Editor/2020.3.29f1/2021.3.10f1/Unity.app/Contents/NetStandard/compat/2.1.0/shims/netstandard/System.Linq.Parallel.dll"
-r:"/Applications/Unity/Hub/Editor/2020.3.29f1/2021.3.10f1/Unity.app/Contents/NetStandard/compat/2.1.0/shims/netstandard/System.Linq.Queryable.dll"
-r:"/Applications/Unity/Hub/Editor/2020.3.29f1/2021.3.10f1/Unity.app/Contents/NetStandard/compat/2.1.0/shims/netstandard/System.Memory.dll"
-r:"/Applications/Unity/Hub/Editor/2020.3.29f1/2021.3.10f1/Unity.app/Contents/NetStandard/compat/2.1.0/shims/netstandard/System.Net.Http.dll"
-r:"/Applications/Unity/Hub/Editor/2020.3.29f1/2021.3.10f1/Unity.app/Contents/NetStandard/compat/2.1.0/shims/netstandard/System.Net.NameResolution.dll"
-r:"/Applications/Unity/Hub/Editor/2020.3.29f1/2021.3.10f1/Unity.app/Contents/NetStandard/compat/2.1.0/shims/netstandard/System.Net.NetworkInformation.dll"
-r:"/Applications/Unity/Hub/Editor/2020.3.29f1/2021.3.10f1/Unity.app/Contents/NetStandard/compat/2.1.0/shims/netstandard/System.Net.Ping.dll"
-r:"/Applications/Unity/Hub/Editor/2020.3.29f1/2021.3.10f1/Unity.app/Contents/NetStandard/compat/2.1.0/shims/netstandard/System.Net.Primitives.dll"
-r:"/Applications/Unity/Hub/Editor/2020.3.29f1/2021.3.10f1/Unity.app/Contents/NetStandard/compat/2.1.0/shims/netstandard/System.Net.Requests.dll"
-r:"/Applications/Unity/Hub/Editor/2020.3.29f1/2021.3.10f1/Unity.app/Contents/NetStandard/compat/2.1.0/shims/netstandard/System.Net.Security.dll"
-r:"/Applications/Unity/Hub/Editor/2020.3.29f1/2021.3.10f1/Unity.app/Contents/NetStandard/compat/2.1.0/shims/netstandard/System.Net.Sockets.dll"
-r:"/Applications/Unity/Hub/Editor/2020.3.29f1/2021.3.10f1/Unity.app/Contents/NetStandard/compat/2.1.0/shims/netstandard/System.Net.WebHeaderCollection.dll"
-r:"/Applications/Unity/Hub/Editor/2020.3.29f1/2021.3.10f1/Unity.app/Contents/NetStandard/compat/2.1.0/shims/netstandard/System.Net.WebSockets.Client.dll"
-r:"/Applications/Unity/Hub/Editor/2020.3.29f1/2021.3.10f1/Unity.app/Contents/NetStandard/compat/2.1.0/shims/netstandard/System.Net.WebSockets.dll"
-r:"/Applications/Unity/Hub/Editor/2020.3.29f1/2021.3.10f1/Unity.app/Contents/NetStandard/compat/2.1.0/shims/netstandard/System.Numerics.Vectors.dll"
-r:"/Applications/Unity/Hub/Editor/2020.3.29f1/2021.3.10f1/Unity.app/Contents/NetStandard/compat/2.1.0/shims/netstandard/System.ObjectModel.dll"
-r:"/Applications/Unity/Hub/Editor/2020.3.29f1/2021.3.10f1/Unity.app/Contents/NetStandard/compat/2.1.0/shims/netstandard/System.Reflection.DispatchProxy.dll"
-r:"/Applications/Unity/Hub/Editor/2020.3.29f1/2021.3.10f1/Unity.app/Contents/NetStandard/compat/2.1.0/shims/netstandard/System.Reflection.dll"
-r:"/Applications/Unity/Hub/Editor/2020.3.29f1/2021.3.10f1/Unity.app/Contents/NetStandard/compat/2.1.0/shims/netstandard/System.Reflection.Emit.dll"
-r:"/Applications/Unity/Hub/Editor/2020.3.29f1/2021.3.10f1/Unity.app/Contents/NetStandard/compat/2.1.0/shims/netstandard/System.Reflection.Emit.ILGeneration.dll"
-r:"/Applications/Unity/Hub/Editor/2020.3.29f1/2021.3.10f1/Unity.app/Contents/NetStandard/compat/2.1.0/shims/netstandard/System.Reflection.Emit.Lightweight.dll"
-r:"/Applications/Unity/Hub/Editor/2020.3.29f1/2021.3.10f1/Unity.app/Contents/NetStandard/compat/2.1.0/shims/netstandard/System.Reflection.Extensions.dll"
-r:"/Applications/Unity/Hub/Editor/2020.3.29f1/2021.3.10f1/Unity.app/Contents/NetStandard/compat/2.1.0/shims/netstandard/System.Reflection.Primitives.dll"
-r:"/Applications/Unity/Hub/Editor/2020.3.29f1/2021.3.10f1/Unity.app/Contents/NetStandard/compat/2.1.0/shims/netstandard/System.Resources.Reader.dll"
-r:"/Applications/Unity/Hub/Editor/2020.3.29f1/2021.3.10f1/Unity.app/Contents/NetStandard/compat/2.1.0/shims/netstandard/System.Resources.ResourceManager.dll"
-r:"/Applications/Unity/Hub/Editor/2020.3.29f1/2021.3.10f1/Unity.app/Contents/NetStandard/compat/2.1.0/shims/netstandard/System.Resources.Writer.dll"
-r:"/Applications/Unity/Hub/Editor/2020.3.29f1/2021.3.10f1/Unity.app/Contents/NetStandard/compat/2.1.0/shims/netstandard/System.Runtime.CompilerServices.VisualC.dll"
-r:"/Applications/Unity/Hub/Editor/2020.3.29f1/2021.3.10f1/Unity.app/Contents/NetStandard/compat/2.1.0/shims/netstandard/System.Runtime.dll"
-r:"/Applications/Unity/Hub/Editor/2020.3.29f1/2021.3.10f1/Unity.app/Contents/NetStandard/compat/2.1.0/shims/netstandard/System.Runtime.Extensions.dll"
-r:"/Applications/Unity/Hub/Editor/2020.3.29f1/2021.3.10f1/Unity.app/Contents/NetStandard/compat/2.1.0/shims/netstandard/System.Runtime.Handles.dll"
-r:"/Applications/Unity/Hub/Editor/2020.3.29f1/2021.3.10f1/Unity.app/Contents/NetStandard/compat/2.1.0/shims/netstandard/System.Runtime.InteropServices.dll"
-r:"/Applications/Unity/Hub/Editor/2020.3.29f1/2021.3.10f1/Unity.app/Contents/NetStandard/compat/2.1.0/shims/netstandard/System.Runtime.InteropServices.RuntimeInformation.dll"
-r:"/Applications/Unity/Hub/Editor/2020.3.29f1/2021.3.10f1/Unity.app/Contents/NetStandard/compat/2.1.0/shims/netstandard/System.Runtime.Numerics.dll"
-r:"/Applications/Unity/Hub/Editor/2020.3.29f1/2021.3.10f1/Unity.app/Contents/NetStandard/compat/2.1.0/shims/netstandard/System.Runtime.Serialization.Formatters.dll"
-r:"/Applications/Unity/Hub/Editor/2020.3.29f1/2021.3.10f1/Unity.app/Contents/NetStandard/compat/2.1.0/shims/netstandard/System.Runtime.Serialization.Json.dll"
-r:"/Applications/Unity/Hub/Editor/2020.3.29f1/2021.3.10f1/Unity.app/Contents/NetStandard/compat/2.1.0/shims/netstandard/System.Runtime.Serialization.Primitives.dll"
-r:"/Applications/Unity/Hub/Editor/2020.3.29f1/2021.3.10f1/Unity.app/Contents/NetStandard/compat/2.1.0/shims/netstandard/System.Runtime.Serialization.Xml.dll"
-r:"/Applications/Unity/Hub/Editor/2020.3.29f1/2021.3.10f1/Unity.app/Contents/NetStandard/compat/2.1.0/shims/netstandard/System.Security.Claims.dll"
-r:"/Applications/Unity/Hub/Editor/2020.3.29f1/2021.3.10f1/Unity.app/Contents/NetStandard/compat/2.1.0/shims/netstandard/System.Security.Cryptography.Algorithms.dll"
-r:"/Applications/Unity/Hub/Editor/2020.3.29f1/2021.3.10f1/Unity.app/Contents/NetStandard/compat/2.1.0/shims/netstandard/System.Security.Cryptography.Csp.dll"
-r:"/Applications/Unity/Hub/Editor/2020.3.29f1/2021.3.10f1/Unity.app/Contents/NetStandard/compat/2.1.0/shims/netstandard/System.Security.Cryptography.Encoding.dll"
-r:"/Applications/Unity/Hub/Editor/2020.3.29f1/2021.3.10f1/Unity.app/Contents/NetStandard/compat/2.1.0/shims/netstandard/System.Security.Cryptography.Primitives.dll"
-r:"/Applications/Unity/Hub/Editor/2020.3.29f1/2021.3.10f1/Unity.app/Contents/NetStandard/compat/2.1.0/shims/netstandard/System.Security.Cryptography.X509Certificates.dll"
-r:"/Applications/Unity/Hub/Editor/2020.3.29f1/2021.3.10f1/Unity.app/Contents/NetStandard/compat/2.1.0/shims/netstandard/System.Security.Principal.dll"
-r:"/Applications/Unity/Hub/Editor/2020.3.29f1/2021.3.10f1/Unity.app/Contents/NetStandard/compat/2.1.0/shims/netstandard/System.Security.SecureString.dll"
-r:"/Applications/Unity/Hub/Editor/2020.3.29f1/2021.3.10f1/Unity.app/Contents/NetStandard/compat/2.1.0/shims/netstandard/System.Text.Encoding.dll"
-r:"/Applications/Unity/Hub/Editor/2020.3.29f1/2021.3.10f1/Unity.app/Contents/NetStandard/compat/2.1.0/shims/netstandard/System.Text.Encoding.Extensions.dll"
-r:"/Applications/Unity/Hub/Editor/2020.3.29f1/2021.3.10f1/Unity.app/Contents/NetStandard/compat/2.1.0/shims/netstandard/System.Text.RegularExpressions.dll"
-r:"/Applications/Unity/Hub/Editor/2020.3.29f1/2021.3.10f1/Unity.app/Contents/NetStandard/compat/2.1.0/shims/netstandard/System.Threading.dll"
-r:"/Applications/Unity/Hub/Editor/2020.3.29f1/2021.3.10f1/Unity.app/Contents/NetStandard/compat/2.1.0/shims/netstandard/System.Threading.Overlapped.dll"
-r:"/Applications/Unity/Hub/Editor/2020.3.29f1/2021.3.10f1/Unity.app/Contents/NetStandard/compat/2.1.0/shims/netstandard/System.Threading.Tasks.dll"
-r:"/Applications/Unity/Hub/Editor/2020.3.29f1/2021.3.10f1/Unity.app/Contents/NetStandard/compat/2.1.0/shims/netstandard/System.Threading.Tasks.Extensions.dll"
-r:"/Applications/Unity/Hub/Editor/2020.3.29f1/2021.3.10f1/Unity.app/Contents/NetStandard/compat/2.1.0/shims/netstandard/System.Threading.Tasks.Parallel.dll"
-r:"/Applications/Unity/Hub/Editor/2020.3.29f1/2021.3.10f1/Unity.app/Contents/NetStandard/compat/2.1.0/shims/netstandard/System.Threading.Thread.dll"
-r:"/Applications/Unity/Hub/Editor/2020.3.29f1/2021.3.10f1/Unity.app/Contents/NetStandard/compat/2.1.0/shims/netstandard/System.Threading.ThreadPool.dll"
-r:"/Applications/Unity/Hub/Editor/2020.3.29f1/2021.3.10f1/Unity.app/Contents/NetStandard/compat/2.1.0/shims/netstandard/System.Threading.Timer.dll"
-r:"/Applications/Unity/Hub/Editor/2020.3.29f1/2021.3.10f1/Unity.app/Contents/NetStandard/compat/2.1.0/shims/netstandard/System.ValueTuple.dll"
-r:"/Applications/Unity/Hub/Editor/2020.3.29f1/2021.3.10f1/Unity.app/Contents/NetStandard/compat/2.1.0/shims/netstandard/System.Xml.ReaderWriter.dll"
-r:"/Applications/Unity/Hub/Editor/2020.3.29f1/2021.3.10f1/Unity.app/Contents/NetStandard/compat/2.1.0/shims/netstandard/System.Xml.XDocument.dll"
-r:"/Applications/Unity/Hub/Editor/2020.3.29f1/2021.3.10f1/Unity.app/Contents/NetStandard/compat/2.1.0/shims/netstandard/System.Xml.XmlDocument.dll"
-r:"/Applications/Unity/Hub/Editor/2020.3.29f1/2021.3.10f1/Unity.app/Contents/NetStandard/compat/2.1.0/shims/netstandard/System.Xml.XmlSerializer.dll"
-r:"/Applications/Unity/Hub/Editor/2020.3.29f1/2021.3.10f1/Unity.app/Contents/NetStandard/compat/2.1.0/shims/netstandard/System.Xml.XPath.dll"
-r:"/Applications/Unity/Hub/Editor/2020.3.29f1/2021.3.10f1/Unity.app/Contents/NetStandard/compat/2.1.0/shims/netstandard/System.Xml.XPath.XDocument.dll"
-r:"/Applications/Unity/Hub/Editor/2020.3.29f1/2021.3.10f1/Unity.app/Contents/NetStandard/Extensions/2.0.0/System.Runtime.InteropServices.WindowsRuntime.dll"
-r:"/Applications/Unity/Hub/Editor/2020.3.29f1/2021.3.10f1/Unity.app/Contents/NetStandard/ref/2.1.0/netstandard.dll"
-r:"/Users/rosit2/Desktop/Moje Pierwsze dźwięki/Library/PackageCache/com.unity.burst@1.7.3/Unity.Burst.CodeGen/Unity.Burst.Cecil.dll"
-r:"/Users/rosit2/Desktop/Moje Pierwsze dźwięki/Library/PackageCache/com.unity.burst@1.7.3/Unity.Burst.CodeGen/Unity.Burst.Cecil.Mdb.dll"
-r:"/Users/rosit2/Desktop/Moje Pierwsze dźwięki/Library/PackageCache/com.unity.burst@1.7.3/Unity.Burst.CodeGen/Unity.Burst.Cecil.Pdb.dll"
-r:"/Users/rosit2/Desktop/Moje Pierwsze dźwięki/Library/PackageCache/com.unity.burst@1.7.3/Unity.Burst.CodeGen/Unity.Burst.Cecil.Rocks.dll"
-r:"/Users/rosit2/Desktop/Moje Pierwsze dźwięki/Library/PackageCache/com.unity.burst@1.7.3/Unity.Burst.Unsafe.dll"
-r:"/Users/rosit2/Desktop/Moje Pierwsze dźwięki/Library/PackageCache/com.unity.nuget.newtonsoft-json@3.0.2/Runtime/AOT/Newtonsoft.Json.dll"
-r:"Assets/GoogleMobileAds/GoogleMobileAds.Common.dll"
-r:"Assets/GoogleMobileAds/GoogleMobileAds.Core.dll"
-r:"Assets/GoogleMobileAds/GoogleMobileAds.dll"
-r:"Assets/GoogleMobileAds/GoogleMobileAds.iOS.dll"
-r:"Library/Bee/artifacts/900b0aP.dag/Unity.Services.Core.ref.dll"
-r:"Library/Bee/artifacts/900b0aP.dag/UnityEngine.UI.ref.dll"
"Library/PackageCache/com.unity.services.core@1.4.2/Runtime/Core.Internal/AssemblyInfo.cs"
"Library/PackageCache/com.unity.services.core@1.4.2/Runtime/Core.Internal/AsyncOperation/AsyncOperation.cs"
"Library/PackageCache/com.unity.services.core@1.4.2/Runtime/Core.Internal/AsyncOperation/AsyncOperationAwaiter.cs"
"Library/PackageCache/com.unity.services.core@1.4.2/Runtime/Core.Internal/AsyncOperation/AsyncOperationBase.cs"
"Library/PackageCache/com.unity.services.core@1.4.2/Runtime/Core.Internal/AsyncOperation/AsyncOperationExtensions.cs"
"Library/PackageCache/com.unity.services.core@1.4.2/Runtime/Core.Internal/AsyncOperation/AsyncOperationStatus.cs"
"Library/PackageCache/com.unity.services.core@1.4.2/Runtime/Core.Internal/AsyncOperation/IAsyncOperation.cs"
"Library/PackageCache/com.unity.services.core@1.4.2/Runtime/Core.Internal/AsyncOperation/IAsyncOperationAwaiter.cs"
"Library/PackageCache/com.unity.services.core@1.4.2/Runtime/Core.Internal/AsyncOperation/TaskAsyncOperation.cs"
"Library/PackageCache/com.unity.services.core@1.4.2/Runtime/Core.Internal/Components/Authentication/IAccessToken.cs"
"Library/PackageCache/com.unity.services.core@1.4.2/Runtime/Core.Internal/Components/Authentication/IEnvironmentId.cs"
"Library/PackageCache/com.unity.services.core@1.4.2/Runtime/Core.Internal/Components/Authentication/IPlayerId.cs"
"Library/PackageCache/com.unity.services.core@1.4.2/Runtime/Core.Internal/Components/Configuration/ICloudProjectId.cs"
"Library/PackageCache/com.unity.services.core@1.4.2/Runtime/Core.Internal/Components/Configuration/IProjectConfiguration.cs"
"Library/PackageCache/com.unity.services.core@1.4.2/Runtime/Core.Internal/Components/Device/IInstallationId.cs"
"Library/PackageCache/com.unity.services.core@1.4.2/Runtime/Core.Internal/Components/Environments/IEnvironments.cs"
"Library/PackageCache/com.unity.services.core@1.4.2/Runtime/Core.Internal/Components/Networking/HttpOptions.cs"
"Library/PackageCache/com.unity.services.core@1.4.2/Runtime/Core.Internal/Components/Networking/HttpRequest.cs"
"Library/PackageCache/com.unity.services.core@1.4.2/Runtime/Core.Internal/Components/Networking/HttpRequestExtensions.cs"
"Library/PackageCache/com.unity.services.core@1.4.2/Runtime/Core.Internal/Components/Networking/HttpResponse.cs"
"Library/PackageCache/com.unity.services.core@1.4.2/Runtime/Core.Internal/Components/Networking/IHttpClient.cs"
"Library/PackageCache/com.unity.services.core@1.4.2/Runtime/Core.Internal/Components/Networking/ReadOnlyHttpRequest.cs"
"Library/PackageCache/com.unity.services.core@1.4.2/Runtime/Core.Internal/Components/Networking/ReadOnlyHttpResponse.cs"
"Library/PackageCache/com.unity.services.core@1.4.2/Runtime/Core.Internal/Components/Qos/IQosResults.cs"
"Library/PackageCache/com.unity.services.core@1.4.2/Runtime/Core.Internal/Components/Scheduler/IActionScheduler.cs"
"Library/PackageCache/com.unity.services.core@1.4.2/Runtime/Core.Internal/Components/Telemetry/IDiagnostics.cs"
"Library/PackageCache/com.unity.services.core@1.4.2/Runtime/Core.Internal/Components/Telemetry/IDiagnosticsComponentProvider.cs"
"Library/PackageCache/com.unity.services.core@1.4.2/Runtime/Core.Internal/Components/Telemetry/IDiagnosticsFactory.cs"
"Library/PackageCache/com.unity.services.core@1.4.2/Runtime/Core.Internal/Components/Telemetry/IMetrics.cs"
"Library/PackageCache/com.unity.services.core@1.4.2/Runtime/Core.Internal/Components/Telemetry/IMetricsFactory.cs"
"Library/PackageCache/com.unity.services.core@1.4.2/Runtime/Core.Internal/Components/Threading/IUnityThreadUtils.cs"
"Library/PackageCache/com.unity.services.core@1.4.2/Runtime/Core.Internal/Components/Vivox/IVivox.cs"
"Library/PackageCache/com.unity.services.core@1.4.2/Runtime/Core.Internal/Components/Vivox/IVivoxTokenProviderInternal.cs"
"Library/PackageCache/com.unity.services.core@1.4.2/Runtime/Core.Internal/Components/Wire/ChannelToken.cs"
"Library/PackageCache/com.unity.services.core@1.4.2/Runtime/Core.Internal/Components/Wire/IChannel.cs"
"Library/PackageCache/com.unity.services.core@1.4.2/Runtime/Core.Internal/Components/Wire/IChannelTokenProvider.cs"
"Library/PackageCache/com.unity.services.core@1.4.2/Runtime/Core.Internal/Components/Wire/IWire.cs"
"Library/PackageCache/com.unity.services.core@1.4.2/Runtime/Core.Internal/Components/Wire/SubscriptionState.cs"
"Library/PackageCache/com.unity.services.core@1.4.2/Runtime/Core.Internal/Logging/CoreLogger.cs"
"Library/PackageCache/com.unity.services.core@1.4.2/Runtime/Core.Internal/Registry/CircularDependencyException.cs"
"Library/PackageCache/com.unity.services.core@1.4.2/Runtime/Core.Internal/Registry/ComponentRegistry/ComponentRegistry.cs"
"Library/PackageCache/com.unity.services.core@1.4.2/Runtime/Core.Internal/Registry/ComponentRegistry/IComponentRegistry.cs"
"Library/PackageCache/com.unity.services.core@1.4.2/Runtime/Core.Internal/Registry/ComponentRegistry/LockedComponentRegistry.cs"
"Library/PackageCache/com.unity.services.core@1.4.2/Runtime/Core.Internal/Registry/CoreRegistration.cs"
"Library/PackageCache/com.unity.services.core@1.4.2/Runtime/Core.Internal/Registry/CoreRegistry.cs"
"Library/PackageCache/com.unity.services.core@1.4.2/Runtime/Core.Internal/Registry/CoreRegistryInitializer.cs"
"Library/PackageCache/com.unity.services.core@1.4.2/Runtime/Core.Internal/Registry/DependencyTree.cs"
"Library/PackageCache/com.unity.services.core@1.4.2/Runtime/Core.Internal/Registry/DependencyTreeExceptions.cs"
"Library/PackageCache/com.unity.services.core@1.4.2/Runtime/Core.Internal/Registry/DependencyTreeExtensions.cs"
"Library/PackageCache/com.unity.services.core@1.4.2/Runtime/Core.Internal/Registry/DependencyTreeInitializeOrderSorter.cs"
"Library/PackageCache/com.unity.services.core@1.4.2/Runtime/Core.Internal/Registry/HashExceptions.cs"
"Library/PackageCache/com.unity.services.core@1.4.2/Runtime/Core.Internal/Registry/IInitializablePackage.cs"
"Library/PackageCache/com.unity.services.core@1.4.2/Runtime/Core.Internal/Registry/IServiceComponent.cs"
"Library/PackageCache/com.unity.services.core@1.4.2/Runtime/Core.Internal/Registry/MissingComponent.cs"
"Library/PackageCache/com.unity.services.core@1.4.2/Runtime/Core.Internal/Registry/PackageRegistry/IPackageRegistry.cs"
"Library/PackageCache/com.unity.services.core@1.4.2/Runtime/Core.Internal/Registry/PackageRegistry/LockedPackageRegistry.cs"
"Library/PackageCache/com.unity.services.core@1.4.2/Runtime/Core.Internal/Registry/PackageRegistry/PackageRegistry.cs"
"Library/PackageCache/com.unity.services.core@1.4.2/Runtime/Core.Internal/Telemetry/CoreDiagnostics.cs"
"Library/PackageCache/com.unity.services.core@1.4.2/Runtime/Core.Internal/Telemetry/CoreMetrics.cs"
"Library/PackageCache/com.unity.services.core@1.4.2/Runtime/Core.Internal/UnityServicesInitializer.cs"
"Library/PackageCache/com.unity.services.core@1.4.2/Runtime/Core.Internal/UnityServicesInternal.cs"
"Library/PackageCache/com.unity.services.core@1.4.2/Runtime/Core.Internal/Utils/DictionaryExtensions.cs"
"Library/PackageCache/com.unity.services.core@1.4.2/Runtime/Core.Internal/Utils/UnityWebRequestUtils.cs"
-langversion:9.0

/deterministic
/optimize+
/debug:portable
/nologo
/RuntimeMetadataVersion:v4.0.30319

/nowarn:0169
/nowarn:0649
/nowarn:1701
/nowarn:1702
/utf8output
/preferreduilang:en-US
-warn:0

/additionalfile:"Library/Bee/artifacts/900b0aP.dag/Unity.Services.Core.Internal.AdditionalFile.txt"