{
"instructions_readme": "1) Open Chrome, 2) go to chrome://tracing, 3) click Load, 4) navigate to this file.",
"traceEvents":[
{ "cat":"", "pid":1, "tid":0, "ts":0, "ph":"M", "name":"process_name", "args": { "name":"tundra" } }
,{ "pid":1, "tid":0, "ts":1653667245895455, "dur":277, "ph":"X", "name": "DriverCheckDagSignatures",  "args": { "durationMS":0, "detail":"" }}
,{ "pid":1, "tid":0, "ts":1653667245895733, "dur":48, "ph":"X", "name": "DriverInitData",  "args": { "durationMS":0, "detail":"" }}
,{ "pid":1, "tid":0, "ts":1653667245895802, "dur":2, "ph":"X", "name": "Tundra",  "args": { "durationMS":0, "detail":"RemoveStaleOutputs" }}
,{ "pid":1, "tid":0, "ts":1653667245895804, "dur":195, "ph":"X", "name": "Tundra",  "args": { "durationMS":0, "detail":"PrepareNodes" }}
,{ "pid":1, "tid":0, "ts":1653667245895999, "dur":174, "ph":"X", "name": "Tundra",  "args": { "durationMS":0, "detail":"BuildQueueInit" }}
,{ "pid":1, "tid":0, "ts":1653667254883305, "dur":231, "ph":"X", "name": "JoinBuildThread",  "args": { "durationMS":0, "detail":"" }}
,{ "pid":1, "tid":0, "ts":1653667254883545, "dur":4, "ph":"X", "name": "JoinBuildThread",  "args": { "durationMS":0, "detail":"" }}
,{ "pid":1, "tid":0, "ts":1653667254883553, "dur":2, "ph":"X", "name": "JoinBuildThread",  "args": { "durationMS":0, "detail":"" }}
,{ "pid":1, "tid":0, "ts":1653667254883557, "dur":3, "ph":"X", "name": "JoinBuildThread",  "args": { "durationMS":0, "detail":"" }}
,{ "pid":1, "tid":0, "ts":1653667254883563, "dur":3, "ph":"X", "name": "JoinBuildThread",  "args": { "durationMS":0, "detail":"" }}
,{ "pid":1, "tid":0, "ts":1653667254883567, "dur":2, "ph":"X", "name": "JoinBuildThread",  "args": { "durationMS":0, "detail":"" }}
,{ "pid":1, "tid":0, "ts":1653667254883572, "dur":2, "ph":"X", "name": "JoinBuildThread",  "args": { "durationMS":0, "detail":"" }}
,{ "pid":1, "tid":0, "ts":1653667254883577, "dur":2, "ph":"X", "name": "JoinBuildThread",  "args": { "durationMS":0, "detail":"" }}
,{ "pid":1, "tid":0, "ts":1653667254883582, "dur":0, "ph":"X", "name": "SharedResourceDestroy",  "args": { "durationMS":0, "detail":"" }}
,{ "pid":1, "tid":0, "ts":1653667254883596, "dur":631, "ph":"X", "name": "Tundra",  "args": { "durationMS":1, "detail":"Write AllBuiltNodes" }}
,{ "pid":1, "tid":1, "ts":1653667245896079, "dur":307, "ph":"X", "name": "WaitingForWork", "cname":"thread_state_sleeping",  "args": { "durationMS":0, "detail":"" }}
,{ "pid":1, "tid":1, "ts":1653667245896386, "dur":8921902, "ph":"X", "name": "WaitingForWork", "cname":"thread_state_sleeping",  "args": { "durationMS":8922, "detail":"" }}
,{ "pid":1, "tid":1, "ts":1653667254818292, "dur":92, "ph":"X", "name": "CheckInputSignature",  "args": { "durationMS":0, "detail":"Copy Additional C++ File /Users/rosit2/Documents/PROJEKTY_SEBA/TishiTunes_Pol/Library/Il2cppBuildCache/iOS/il2cppOutput/UnityICallRegistration.cpp" }}
,{ "pid":1, "tid":1, "ts":1653667254818402, "dur":64857, "ph":"X", "name": "Copy",  "args": { "durationMS":65, "detail":"Additional C++ File /Users/rosit2/Documents/PROJEKTY_SEBA/TishiTunes_Pol/Library/Il2cppBuildCache/iOS/il2cppOutput/UnityICallRegistration.cpp" }}
,{ "pid":1, "tid":1, "ts":1653667254883269, "dur":3, "ph":"X", "name": "CheckInputSignature",  "args": { "durationMS":0, "detail":"all_tundra_nodes" }}
,{ "pid":1, "tid":1, "ts":1653667254883282, "dur":118, "ph":"X", "name": "WaitingForWork", "cname":"thread_state_sleeping",  "args": { "durationMS":0, "detail":"" }}
,{ "pid":1, "tid":1, "ts":1653667254883403, "dur":0, "ph":"X", "name": "Exiting",  "args": { "durationMS":0, "detail":"BuildLoop" }}
,{ "pid":1, "tid":2, "ts":1653667245896392, "dur":8987023, "ph":"X", "name": "WaitingForWork", "cname":"thread_state_sleeping",  "args": { "durationMS":8987, "detail":"" }}
,{ "pid":1, "tid":2, "ts":1653667254883439, "dur":39, "ph":"X", "name": "Exiting",  "args": { "durationMS":0, "detail":"BuildLoop" }}
,{ "pid":1, "tid":3, "ts":1653667245896145, "dur":8987184, "ph":"X", "name": "WaitingForWork", "cname":"thread_state_sleeping",  "args": { "durationMS":8987, "detail":"" }}
,{ "pid":1, "tid":3, "ts":1653667254883389, "dur":38, "ph":"X", "name": "Exiting",  "args": { "durationMS":0, "detail":"BuildLoop" }}
,{ "pid":1, "tid":4, "ts":1653667245896162, "dur":8987279, "ph":"X", "name": "WaitingForWork", "cname":"thread_state_sleeping",  "args": { "durationMS":8987, "detail":"" }}
,{ "pid":1, "tid":4, "ts":1653667254883504, "dur":3, "ph":"X", "name": "Exiting",  "args": { "durationMS":0, "detail":"BuildLoop" }}
,{ "pid":1, "tid":5, "ts":1653667245896359, "dur":1654, "ph":"X", "name": "CheckInputSignature",  "args": { "durationMS":2, "detail":"Il2Cpp /Users/rosit2/Documents/PROJEKTY_SEBA/TishiTunes_Pol/Library/Il2cppBuildCache/iOS/il2cppOutput/Data/Metadata/global-metadata.dat" }}
,{ "pid":1, "tid":5, "ts":1653667245898134, "dur":8920089, "ph":"X", "name": "Il2Cpp",  "args": { "durationMS":8920, "detail":"/Users/rosit2/Documents/PROJEKTY_SEBA/TishiTunes_Pol/Library/Il2cppBuildCache/iOS/il2cppOutput/Data/Metadata/global-metadata.dat" }}
,{ "pid":1, "tid":5, "ts":1653667254818248, "dur":94, "ph":"X", "name": "CheckInputSignature",  "args": { "durationMS":0, "detail":"Copy Additional C++ File /Users/rosit2/Documents/PROJEKTY_SEBA/TishiTunes_Pol/Library/Il2cppBuildCache/iOS/il2cppOutput/UnityClassRegistration.cpp" }}
,{ "pid":1, "tid":5, "ts":1653667254818356, "dur":64880, "ph":"X", "name": "Copy",  "args": { "durationMS":65, "detail":"Additional C++ File /Users/rosit2/Documents/PROJEKTY_SEBA/TishiTunes_Pol/Library/Il2cppBuildCache/iOS/il2cppOutput/UnityClassRegistration.cpp" }}
,{ "pid":1, "tid":5, "ts":1653667254883252, "dur":139, "ph":"X", "name": "WaitingForWork", "cname":"thread_state_sleeping",  "args": { "durationMS":0, "detail":"" }}
,{ "pid":1, "tid":5, "ts":1653667254883400, "dur":0, "ph":"X", "name": "Exiting",  "args": { "durationMS":0, "detail":"BuildLoop" }}
,{ "pid":1, "tid":6, "ts":1653667245896395, "dur":8987113, "ph":"X", "name": "WaitingForWork", "cname":"thread_state_sleeping",  "args": { "durationMS":8987, "detail":"" }}
,{ "pid":1, "tid":6, "ts":1653667254883528, "dur":3, "ph":"X", "name": "Exiting",  "args": { "durationMS":0, "detail":"BuildLoop" }}
,{ "pid":1, "tid":7, "ts":1653667245896397, "dur":8987095, "ph":"X", "name": "WaitingForWork", "cname":"thread_state_sleeping",  "args": { "durationMS":8987, "detail":"" }}
,{ "pid":1, "tid":7, "ts":1653667254883501, "dur":10, "ph":"X", "name": "Exiting",  "args": { "durationMS":0, "detail":"BuildLoop" }}
,{ "pid":1, "tid":8, "ts":1653667245896394, "dur":8987136, "ph":"X", "name": "WaitingForWork", "cname":"thread_state_sleeping",  "args": { "durationMS":8987, "detail":"" }}
,{ "pid":1, "tid":8, "ts":1653667254883539, "dur":3, "ph":"X", "name": "Exiting",  "args": { "durationMS":0, "detail":"BuildLoop" }}

]
}
